\relax 
\providecommand\hyper@newdestlabel[2]{}
\providecommand\HyperFirstAtBeginDocument{\AtBeginDocument}
\HyperFirstAtBeginDocument{\ifx\hyper@anchor\@undefined
\global\let\oldcontentsline\contentsline
\gdef\contentsline#1#2#3#4{\oldcontentsline{#1}{#2}{#3}}
\global\let\oldnewlabel\newlabel
\gdef\newlabel#1#2{\newlabelxx{#1}#2}
\gdef\newlabelxx#1#2#3#4#5#6{\oldnewlabel{#1}{{#2}{#3}}}
\AtEndDocument{\ifx\hyper@anchor\@undefined
\let\contentsline\oldcontentsline
\let\newlabel\oldnewlabel
\fi}
\fi}
\global\let\hyper@last\relax 
\gdef\HyperFirstAtBeginDocument#1{#1}
\providecommand\HyField@AuxAddToFields[1]{}
\providecommand\HyField@AuxAddToCoFields[2]{}
\let\TR@TitleReference\@firstoftwo
\citation{kang2001robotic}
\citation{knight2002safety}
\citation{jackson2009direct}
\citation{jackson2002alloy}
\citation{ernst2015toward}
\@writefile{toc}{\contentsline {section}{Abstract}{1}{section*.1}}
\@writefile{toc}{\contentsline {section}{\numberline {1}Introduction}{1}{section.1}}
\newlabel{sec-intro}{{1}{1}{Introduction}{section.1}{}}
\citation{jackson2001problem}
\citation{cubrichthesis}
\citation{cubrichthesis}
\citation{fei2001safety}
\citation{hapticdevice}
\citation{hapticdevice}
\citation{cubrichthesis}
\@writefile{lof}{\contentsline {figure}{\numberline {1}{\ignorespaces Approach to building a dependability case\relax }}{2}{figure.caption.4}}
\providecommand*\caption@xref[2]{\@setref\relax\@undefined{#1}}
\newlabel{fig:process}{{1}{2}{Approach to building a dependability case\relax }{figure.caption.4}{}}
\@writefile{toc}{\contentsline {section}{\numberline {2}System Overview}{2}{section.2}}
\newlabel{sec-overview}{{2}{2}{System Overview}{section.2}{}}
\@writefile{toc}{\contentsline {subsection}{\numberline {2.1}System Architecture}{2}{subsection.2.1}}
\newlabel{architecture}{{2.1}{2}{System Architecture}{subsection.2.1}{}}
\citation{cubrichthesis}
\citation{near2011lightweight}
\citation{pernsteiner2016investigating}
\citation{kang2010dependability}
\citation{jackson2001problem}
\citation{kang2010dependability}
\citation{jackson2001problem}
\@writefile{lof}{\contentsline {figure}{\numberline {2}{\ignorespaces System Architecture\relax }}{3}{figure.caption.5}}
\newlabel{fig:fig1}{{2}{3}{System Architecture\relax }{figure.caption.5}{}}
\@writefile{toc}{\contentsline {section}{\numberline {3}Dependability case}{3}{section.3}}
\newlabel{sec-case}{{3}{3}{Dependability case}{section.3}{}}
\@writefile{lof}{\contentsline {figure}{\numberline {3}{\ignorespaces Problem Diagram for the Correct Angle Property\relax }}{4}{figure.caption.6}}
\newlabel{fig:fig2}{{3}{4}{Problem Diagram for the Correct Angle Property\relax }{figure.caption.6}{}}
\@writefile{toc}{\contentsline {subsection}{\numberline {3.1}Construction of the dependability case}{4}{subsection.3.1}}
\newlabel{construction}{{3.1}{4}{Construction of the dependability case}{subsection.3.1}{}}
\@writefile{toc}{\contentsline {subsection}{\numberline {3.2}Building a case for Correct Angle Property}{4}{subsection.3.2}}
\newlabel{buidlingacase}{{3.2}{4}{Building a case for Correct Angle Property}{subsection.3.2}{}}
\citation{jackson2002alloy}
\@writefile{lof}{\contentsline {figure}{\numberline {4}{\ignorespaces Property-Part Diagram for the Correct Angle Property\relax }}{5}{figure.caption.7}}
\newlabel{fig:fig3}{{4}{5}{Property-Part Diagram for the Correct Angle Property\relax }{figure.caption.7}{}}
\@writefile{toc}{\contentsline {section}{\numberline {4}Approach}{5}{section.4}}
\newlabel{sec-approach}{{4}{5}{Approach}{section.4}{}}
\@writefile{lof}{\contentsline {figure}{\numberline {5}{\ignorespaces A snippet of the Alloy model featuring the components of the system\relax }}{6}{figure.caption.8}}
\newlabel{fig-model-1}{{5}{6}{A snippet of the Alloy model featuring the components of the system\relax }{figure.caption.8}{}}
\@writefile{lof}{\contentsline {figure}{\numberline {6}{\ignorespaces Facts defined in the Alloy model to provide constraints\relax }}{7}{figure.caption.9}}
\newlabel{fig-model-3}{{6}{7}{Facts defined in the Alloy model to provide constraints\relax }{figure.caption.9}{}}
\@writefile{lof}{\contentsline {figure}{\numberline {7}{\ignorespaces An assertion to check the property\relax }}{8}{figure.caption.10}}
\newlabel{fig-model-4}{{7}{8}{An assertion to check the property\relax }{figure.caption.10}{}}
\@writefile{lof}{\contentsline {figure}{\numberline {8}{\ignorespaces Modified parts of the Alloy model\relax }}{8}{figure.caption.11}}
\newlabel{fig-model-revised}{{8}{8}{Modified parts of the Alloy model\relax }{figure.caption.11}{}}
\@writefile{lof}{\contentsline {figure}{\numberline {9}{\ignorespaces Counterexample for the modified model\relax }}{8}{figure.caption.12}}
\newlabel{fig:fig9}{{9}{8}{Counterexample for the modified model\relax }{figure.caption.12}{}}
\@writefile{toc}{\contentsline {section}{\numberline {5}Testing and evaluation}{8}{section.5}}
\newlabel{sec-testing}{{5}{8}{Testing and evaluation}{section.5}{}}
\@writefile{toc}{\contentsline {subsection}{\numberline {5.1}Deriving tests from counterexamples}{8}{subsection.5.1}}
\newlabel{subsec-first}{{5.1}{8}{Deriving tests from counterexamples}{subsection.5.1}{}}
\citation{CodedUI}
\citation{NAP11923}
\citation{McDermid:2001:SSW:563780.563781}
\citation{kelly2004goal}
\citation{nair2014extended}
\citation{graydon2007assurance}
\citation{wagner2010case}
\citation{Ridderhof2007EstablishingEF}
\citation{Graydon2012Conformance}
\citation{Denney2012Perspectives}
\citation{bourdil2016integrating}
\citation{sullivan2004software}
\citation{gacek2014resolute}
\citation{Tuan2010Pace}
\@writefile{toc}{\contentsline {subsection}{\numberline {5.2}Testing approach}{9}{subsection.5.2}}
\newlabel{testing}{{5.2}{9}{Testing approach}{subsection.5.2}{}}
\@writefile{toc}{\contentsline {section}{\numberline {6}Related Work}{9}{section.6}}
\newlabel{sec-related}{{6}{9}{Related Work}{section.6}{}}
\citation{brunel2014safety}
\citation{brunel2014formal}
\citation{near2011lightweight}
\citation{pernsteiner2016investigating}
\citation{nair2014extended}
\citation{pernsteiner2016investigating}
\citation{near2011lightweight}
\citation{jackson2009property}
\@writefile{toc}{\contentsline {section}{\numberline {7}Discussions and Lessons Learned}{10}{section.7}}
\newlabel{lessons}{{7}{10}{Discussions and Lessons Learned}{section.7}{}}
\bibstyle{unsrt}
\bibdata{bib}
\bibcite{kang2001robotic}{{1}{}{{}}{{}}}
\bibcite{knight2002safety}{{2}{}{{}}{{}}}
\bibcite{jackson2009direct}{{3}{}{{}}{{}}}
\bibcite{jackson2002alloy}{{4}{}{{}}{{}}}
\bibcite{ernst2015toward}{{5}{}{{}}{{}}}
\bibcite{jackson2001problem}{{6}{}{{}}{{}}}
\bibcite{cubrichthesis}{{7}{}{{}}{{}}}
\bibcite{fei2001safety}{{8}{}{{}}{{}}}
\bibcite{hapticdevice}{{9}{}{{}}{{}}}
\bibcite{near2011lightweight}{{10}{}{{}}{{}}}
\bibcite{pernsteiner2016investigating}{{11}{}{{}}{{}}}
\bibcite{kang2010dependability}{{12}{}{{}}{{}}}
\bibcite{CodedUI}{{13}{}{{}}{{}}}
\bibcite{NAP11923}{{14}{}{{}}{{}}}
\bibcite{McDermid:2001:SSW:563780.563781}{{15}{}{{}}{{}}}
\bibcite{kelly2004goal}{{16}{}{{}}{{}}}
\bibcite{nair2014extended}{{17}{}{{}}{{}}}
\bibcite{graydon2007assurance}{{18}{}{{}}{{}}}
\bibcite{wagner2010case}{{19}{}{{}}{{}}}
\bibcite{Ridderhof2007EstablishingEF}{{20}{}{{}}{{}}}
\bibcite{Graydon2012Conformance}{{21}{}{{}}{{}}}
\bibcite{Denney2012Perspectives}{{22}{}{{}}{{}}}
\bibcite{bourdil2016integrating}{{23}{}{{}}{{}}}
\bibcite{sullivan2004software}{{24}{}{{}}{{}}}
\bibcite{gacek2014resolute}{{25}{}{{}}{{}}}
\bibcite{Tuan2010Pace}{{26}{}{{}}{{}}}
\bibcite{brunel2014safety}{{27}{}{{}}{{}}}
\bibcite{brunel2014formal}{{28}{}{{}}{{}}}
\bibcite{jackson2009property}{{29}{}{{}}{{}}}
\newlabel{tocindent-1}{0pt}
\newlabel{tocindent0}{0pt}
\newlabel{tocindent1}{4.185pt}
\newlabel{tocindent2}{10.34999pt}
\newlabel{tocindent3}{18.198pt}
\providecommand\NAT@force@numbers{}\NAT@force@numbers
\@writefile{toc}{\contentsline {section}{\numberline {8}Conclusions and Future Work}{11}{section.8}}
\newlabel{sec-conclusion}{{8}{11}{Conclusions and Future Work}{section.8}{}}
\@writefile{toc}{\contentsline {section}{References}{11}{section*.14}}
\newlabel{TotPages}{{11}{11}{}{page.11}{}}
